(module dvi (layer F.Cu) (tedit 5DE085F0)
  (descr "DVI connector, Tyco P/N 1-1734147-1")
  (fp_text reference DVI (at 0 6.10108) (layer F.SilkS)
    (effects (font (size 1.524 1.524) (thickness 0.3048)))
  )
  (fp_text value JP*** (at 0 -10.795) (layer F.SilkS)
    (effects (font (size 1.524 1.524) (thickness 0.3048)))
  )
  (fp_line (start -12.573 -9.017) (end -14.097 -7.493) (layer F.SilkS) (width 0.381))
  (fp_line (start -14.097 -7.493) (end -14.097 -3.302) (layer F.SilkS) (width 0.381))
  (fp_line (start 14.224 -7.62) (end 14.224 -3.302) (layer F.SilkS) (width 0.381))
  (fp_line (start 12.573 -9.017) (end 14.224 -7.62) (layer F.SilkS) (width 0.381))
  (fp_line (start -12.573 -9.017) (end -12.573 -0.508) (layer F.SilkS) (width 0.381))
  (fp_line (start 12.573 -9.017) (end 12.573 -0.508) (layer F.SilkS) (width 0.381))
  (fp_line (start -18.415 -0.508) (end -18.415 -3.302) (layer F.SilkS) (width 0.381))
  (fp_line (start -18.415 -3.302) (end -12.573 -3.302) (layer F.SilkS) (width 0.381))
  (fp_line (start 18.415 -0.508) (end 18.415 -3.302) (layer F.SilkS) (width 0.381))
  (fp_line (start 18.415 -3.302) (end 12.573 -3.302) (layer F.SilkS) (width 0.381))
  (fp_line (start 18.415 -0.508) (end 18.415 2.54) (layer F.SilkS) (width 0.381))
  (fp_line (start -18.415 -0.508) (end -18.415 2.54) (layer F.SilkS) (width 0.381))
  (fp_line (start -18.415 -0.508) (end 18.415 -0.508) (layer F.SilkS) (width 0.381))
  (fp_line (start -12.573 -9.017) (end 12.573 -9.017) (layer F.SilkS) (width 0.381))
  (fp_line (start -12.065 9.017) (end 12.065 9.017) (layer F.SilkS) (width 0.381))
  (fp_line (start 12.065 9.017) (end 12.065 2.54) (layer F.SilkS) (width 0.381))
  (fp_line (start -12.065 9.017) (end -12.065 2.54) (layer F.SilkS) (width 0.381))
  (fp_line (start -18.415 2.54) (end 18.415 2.54) (layer F.SilkS) (width 0.381))
  (pad "" thru_hole circle (at 15.11046 -3.302) (size 3.50012 3.50012) (drill 1.89992) (layers *.Cu *.Mask))
  (pad 3 thru_hole circle (at -5.715 -7.112) (size 1.30048 1.30048) (drill 0.8001) (layers *.Cu *.Mask))
  (pad 2 thru_hole circle (at -7.62 -7.112) (size 1.30048 1.30048) (drill 0.8001) (layers *.Cu *.Mask))
  (pad 1 thru_hole circle (at -9.525 -7.112) (size 1.30048 1.30048) (drill 0.8001) (layers *.Cu *.Mask))
  (pad 4 thru_hole circle (at -3.81 -7.112) (size 1.30048 1.30048) (drill 0.8001) (layers *.Cu *.Mask))
  (pad 5 thru_hole circle (at -1.905 -7.112) (size 1.30048 1.30048) (drill 0.8001) (layers *.Cu *.Mask))
  (pad 9 thru_hole circle (at -9.525 -5.207) (size 1.30048 1.30048) (drill 0.8001) (layers *.Cu *.Mask))
  (pad 7 thru_hole circle (at 1.905 -7.112) (size 1.30048 1.30048) (drill 0.8001) (layers *.Cu *.Mask))
  (pad 6 thru_hole circle (at 0 -7.112) (size 1.30048 1.30048) (drill 0.8001) (layers *.Cu *.Mask))
  (pad "" thru_hole circle (at -15.11046 -3.302) (size 3.50012 3.50012) (drill 1.89992) (layers *.Cu *.Mask))
  (pad 10 thru_hole circle (at -7.62 -5.207) (size 1.30048 1.30048) (drill 0.8001) (layers *.Cu *.Mask))
  (pad 11 thru_hole circle (at -5.715 -5.207) (size 1.30048 1.30048) (drill 0.8001) (layers *.Cu *.Mask))
  (pad 12 thru_hole circle (at -3.81 -5.207) (size 1.30048 1.30048) (drill 0.8001) (layers *.Cu *.Mask))
  (pad 13 thru_hole circle (at -1.905 -5.207) (size 1.30048 1.30048) (drill 0.8001) (layers *.Cu *.Mask))
  (pad 14 thru_hole circle (at 0 -5.207) (size 1.30048 1.30048) (drill 0.8001) (layers *.Cu *.Mask))
  (pad 15 thru_hole circle (at 1.905 -5.207) (size 1.30048 1.30048) (drill 0.8001) (layers *.Cu *.Mask))
  (pad 16 thru_hole circle (at 3.81 -5.207) (size 1.30048 1.30048) (drill 0.8001) (layers *.Cu *.Mask))
  (pad 17 thru_hole circle (at -9.525 -3.302) (size 1.30048 1.30048) (drill 0.8001) (layers *.Cu *.Mask))
  (pad 18 thru_hole circle (at -7.62 -3.302) (size 1.30048 1.30048) (drill 0.8001) (layers *.Cu *.Mask))
  (pad 19 thru_hole circle (at -5.715 -3.302) (size 1.30048 1.30048) (drill 0.8001) (layers *.Cu *.Mask))
  (pad 20 thru_hole circle (at -3.81 -3.302) (size 1.30048 1.30048) (drill 0.8001) (layers *.Cu *.Mask))
  (pad 21 thru_hole circle (at -1.905 -3.302) (size 1.30048 1.30048) (drill 0.8001) (layers *.Cu *.Mask))
  (pad 22 thru_hole circle (at 0 -3.302) (size 1.30048 1.30048) (drill 0.8001) (layers *.Cu *.Mask))
  (pad 23 thru_hole circle (at 1.905 -3.302) (size 1.30048 1.30048) (drill 0.8001) (layers *.Cu *.Mask))
  (pad 24 thru_hole circle (at 3.81 -3.302) (size 1.30048 1.30048) (drill 0.8001) (layers *.Cu *.Mask))
  (pad 8 thru_hole circle (at 3.81 -7.112) (size 1.30048 1.30048) (drill 0.8001) (layers *.Cu *.Mask))
  (pad C2 thru_hole circle (at 9.525 -6.477) (size 1.30048 1.30048) (drill 0.8001) (layers *.Cu *.Mask))
  (pad C1 thru_hole circle (at 6.985 -6.477) (size 1.30048 1.30048) (drill 0.8001) (layers *.Cu *.Mask))
  (pad C3 thru_hole circle (at 6.985 -3.937) (size 1.30048 1.30048) (drill 0.8001) (layers *.Cu *.Mask))
  (pad C4 thru_hole circle (at 9.525 -3.937) (size 1.30048 1.30048) (drill 0.8001) (layers *.Cu *.Mask))
  (pad C5 thru_hole circle (at 8.255 -7.747) (size 1.30048 1.30048) (drill 0.8001) (layers *.Cu *.Mask))
  (pad C5 thru_hole circle (at 8.255 -2.667) (size 1.30048 1.30048) (drill 0.8001) (layers *.Cu *.Mask))
  (pad "" np_thru_hole circle (at -9.525 -0.00254) (size 1.99898 1.99898) (drill 1.99898) (layers *.Cu))
  (pad "" np_thru_hole circle (at 9.525 -0.00254) (size 1.99898 1.99898) (drill 1.99898) (layers *.Cu))
  (model walter/conn_pc/dvi.wrl
    (at (xyz 0 0 0))
    (scale (xyz 1 1 1))
    (rotate (xyz 0 0 0))
  )
  (model ${KIPRJMOD}/footprints.pretty/dvi_a-dvi-i.igs
    (offset (xyz 0 -2.5 5))
    (scale (xyz 0.039 0.039 0.039))
    (rotate (xyz -90 0 0))
  )
)
