(footprint "QFN-32-1EP_5x5mm_P0.5mm_EP3.45x3.45mm_LargerThermalVias" (version 20221018) (generator pcbnew)
  (layer "F.Cu")
  (descr "QFN, 32 Pin (http://www.analog.com/media/en/package-pcb-resources/package/pkg_pdf/ltc-legacy-qfn/QFN_32_05-08-1693.pdf), generated with kicad-footprint-generator ipc_noLead_generator.py")
  (tags "QFN NoLead")
  (attr smd)
  (fp_text reference "REF**" (at 0 -3.82) (layer "F.SilkS")
      (effects (font (size 1 1) (thickness 0.15)))
    (tstamp b284db98-5322-4cca-aa56-4ad32d8b83bd)
  )
  (fp_text value "QFN-32-1EP_5x5mm_P0.5mm_EP3.45x3.45mm_LargerThermalVias" (at 0 3.82) (layer "F.Fab")
      (effects (font (size 1 1) (thickness 0.15)))
    (tstamp 1b9bd8fa-675c-4471-9d60-1c8af8f4a86c)
  )
  (fp_text user "${REFERENCE}" (at 0 0) (layer "F.Fab")
      (effects (font (size 1 1) (thickness 0.15)))
    (tstamp 13c2ceed-8f21-462c-9fd2-433f50cad677)
  )
  (fp_line (start -2.61 2.61) (end -2.61 2.135)
    (stroke (width 0.12) (type solid)) (layer "F.SilkS") (tstamp 62558ab1-7135-4a99-840b-6fd963a95617))
  (fp_line (start -2.135 -2.61) (end -2.61 -2.61)
    (stroke (width 0.12) (type solid)) (layer "F.SilkS") (tstamp c6be8144-d74b-4576-b331-119aab945f8b))
  (fp_line (start -2.135 2.61) (end -2.61 2.61)
    (stroke (width 0.12) (type solid)) (layer "F.SilkS") (tstamp d4d33685-3c2f-4d53-b51a-46dd0f700c1e))
  (fp_line (start 2.135 -2.61) (end 2.61 -2.61)
    (stroke (width 0.12) (type solid)) (layer "F.SilkS") (tstamp 5b890c6b-0125-4d33-bf5c-c8a09fec645c))
  (fp_line (start 2.135 2.61) (end 2.61 2.61)
    (stroke (width 0.12) (type solid)) (layer "F.SilkS") (tstamp 55fe387a-68cb-4095-baf7-560d1a7c6b6f))
  (fp_line (start 2.61 -2.61) (end 2.61 -2.135)
    (stroke (width 0.12) (type solid)) (layer "F.SilkS") (tstamp f8a18745-6d97-4469-866a-f954afeefefb))
  (fp_line (start 2.61 2.61) (end 2.61 2.135)
    (stroke (width 0.12) (type solid)) (layer "F.SilkS") (tstamp bd1c4b93-56c7-438e-a17e-9943425c1623))
  (fp_line (start -3.12 -3.12) (end -3.12 3.12)
    (stroke (width 0.05) (type solid)) (layer "F.CrtYd") (tstamp ec904fb2-b7e9-407c-973e-907e3328d651))
  (fp_line (start -3.12 3.12) (end 3.12 3.12)
    (stroke (width 0.05) (type solid)) (layer "F.CrtYd") (tstamp 430745bc-0e0f-4dd4-a38a-065936f6365a))
  (fp_line (start 3.12 -3.12) (end -3.12 -3.12)
    (stroke (width 0.05) (type solid)) (layer "F.CrtYd") (tstamp 3bfcf064-6ee5-461d-80e6-eda70e05d5e8))
  (fp_line (start 3.12 3.12) (end 3.12 -3.12)
    (stroke (width 0.05) (type solid)) (layer "F.CrtYd") (tstamp 065a5e45-d61b-4e54-889b-18da8dfccf56))
  (fp_line (start -2.5 -1.5) (end -1.5 -2.5)
    (stroke (width 0.1) (type solid)) (layer "F.Fab") (tstamp 4957bbdd-7f19-4b1f-aee5-dd1ff1806a66))
  (fp_line (start -2.5 2.5) (end -2.5 -1.5)
    (stroke (width 0.1) (type solid)) (layer "F.Fab") (tstamp e6876182-38e3-4f3b-a3fb-b8a0d5a813ce))
  (fp_line (start -1.5 -2.5) (end 2.5 -2.5)
    (stroke (width 0.1) (type solid)) (layer "F.Fab") (tstamp a164e098-e1da-4f11-bca4-873c62a48eba))
  (fp_line (start 2.5 -2.5) (end 2.5 2.5)
    (stroke (width 0.1) (type solid)) (layer "F.Fab") (tstamp 6909a1e0-664e-4c13-a4ad-05eabee9f292))
  (fp_line (start 2.5 2.5) (end -2.5 2.5)
    (stroke (width 0.1) (type solid)) (layer "F.Fab") (tstamp 10b891de-54d1-470a-9287-310ffc09d280))
  (pad "" smd custom (at -1.3625 -1.3625) (size 0.483853 0.483853) (layers "F.Paste")
    (thermal_bridge_angle 45)
    (options (clearance outline) (anchor circle))
    (primitives
      (gr_poly
        (pts
          (xy 0.191596 0.108205)
          (xy 0.108205 0.191596)
          (xy -0.191596 0.191596)
          (xy -0.191596 -0.191596)
          (xy 0.191596 -0.191596)
        )
        (width 0.201322) (fill yes))
    ) (tstamp 2e6c44e7-8d0b-4ac8-bd49-dbf2f6db21ae))
  (pad "" smd custom (at -1.3625 -0.5) (size 0.502693 0.502693) (layers "F.Paste")
    (thermal_bridge_angle 45)
    (options (clearance outline) (anchor circle))
    (primitives
      (gr_poly
        (pts
          (xy 0.210436 -0.253509)
          (xy 0.210436 0.253509)
          (xy 0.142653 0.321292)
          (xy -0.210436 0.321292)
          (xy -0.210436 -0.321292)
          (xy 0.142653 -0.321292)
        )
        (width 0.163642) (fill yes))
    ) (tstamp 310dbe4f-4c06-4cd7-b097-67c67f64d815))
  (pad "" smd custom (at -1.3625 0.5) (size 0.502693 0.502693) (layers "F.Paste")
    (thermal_bridge_angle 45)
    (options (clearance outline) (anchor circle))
    (primitives
      (gr_poly
        (pts
          (xy 0.210436 -0.253509)
          (xy 0.210436 0.253509)
          (xy 0.142653 0.321292)
          (xy -0.210436 0.321292)
          (xy -0.210436 -0.321292)
          (xy 0.142653 -0.321292)
        )
        (width 0.163642) (fill yes))
    ) (tstamp e7ab07e6-6df0-4db7-a630-42c77efaa633))
  (pad "" smd custom (at -1.3625 1.3625) (size 0.483853 0.483853) (layers "F.Paste")
    (thermal_bridge_angle 45)
    (options (clearance outline) (anchor circle))
    (primitives
      (gr_poly
        (pts
          (xy 0.191596 -0.108205)
          (xy 0.191596 0.191596)
          (xy -0.191596 0.191596)
          (xy -0.191596 -0.191596)
          (xy 0.108205 -0.191596)
        )
        (width 0.201322) (fill yes))
    ) (tstamp d7550adf-47e7-4d83-a60e-c8b75f6e9bb7))
  (pad "" smd custom (at -0.5 -1.3625) (size 0.502693 0.502693) (layers "F.Paste")
    (thermal_bridge_angle 45)
    (options (clearance outline) (anchor circle))
    (primitives
      (gr_poly
        (pts
          (xy 0.321292 0.142653)
          (xy 0.253509 0.210436)
          (xy -0.253509 0.210436)
          (xy -0.321292 0.142653)
          (xy -0.321292 -0.210436)
          (xy 0.321292 -0.210436)
        )
        (width 0.163642) (fill yes))
    ) (tstamp e95949ed-5a25-43a3-a0a5-bef74319d6fc))
  (pad "" smd roundrect (at -0.5 -0.5) (size 0.806226 0.806226) (layers "F.Paste") (roundrect_rratio 0.25) (tstamp 884613d0-0ebd-45e3-b82b-4e7690b875c1))
  (pad "" smd roundrect (at -0.5 0.5) (size 0.806226 0.806226) (layers "F.Paste") (roundrect_rratio 0.25) (tstamp 0e8a0f5f-a4a8-413d-9bf3-99cb9202c499))
  (pad "" smd custom (at -0.5 1.3625) (size 0.502693 0.502693) (layers "F.Paste")
    (thermal_bridge_angle 45)
    (options (clearance outline) (anchor circle))
    (primitives
      (gr_poly
        (pts
          (xy 0.321292 -0.142653)
          (xy 0.321292 0.210436)
          (xy -0.321292 0.210436)
          (xy -0.321292 -0.142653)
          (xy -0.253509 -0.210436)
          (xy 0.253509 -0.210436)
        )
        (width 0.163642) (fill yes))
    ) (tstamp 709f17d7-bac1-42dc-b17c-f0e2927ea98e))
  (pad "" smd custom (at 0.5 -1.3625) (size 0.502693 0.502693) (layers "F.Paste")
    (thermal_bridge_angle 45)
    (options (clearance outline) (anchor circle))
    (primitives
      (gr_poly
        (pts
          (xy 0.321292 0.142653)
          (xy 0.253509 0.210436)
          (xy -0.253509 0.210436)
          (xy -0.321292 0.142653)
          (xy -0.321292 -0.210436)
          (xy 0.321292 -0.210436)
        )
        (width 0.163642) (fill yes))
    ) (tstamp b62b1787-8354-47cf-be7d-f3a770cf6b05))
  (pad "" smd roundrect (at 0.5 -0.5) (size 0.806226 0.806226) (layers "F.Paste") (roundrect_rratio 0.25) (tstamp 24a1ab54-6f3e-48bd-8adc-6ad3427a4c39))
  (pad "" smd roundrect (at 0.5 0.5) (size 0.806226 0.806226) (layers "F.Paste") (roundrect_rratio 0.25) (tstamp 2f605a98-410a-4025-b128-6fd66ab9e96b))
  (pad "" smd custom (at 0.5 1.3625) (size 0.502693 0.502693) (layers "F.Paste")
    (thermal_bridge_angle 45)
    (options (clearance outline) (anchor circle))
    (primitives
      (gr_poly
        (pts
          (xy 0.321292 -0.142653)
          (xy 0.321292 0.210436)
          (xy -0.321292 0.210436)
          (xy -0.321292 -0.142653)
          (xy -0.253509 -0.210436)
          (xy 0.253509 -0.210436)
        )
        (width 0.163642) (fill yes))
    ) (tstamp 9dadfd61-92bd-4375-9977-a6ec395b9cc8))
  (pad "" smd custom (at 1.3625 -1.3625) (size 0.483853 0.483853) (layers "F.Paste")
    (thermal_bridge_angle 45)
    (options (clearance outline) (anchor circle))
    (primitives
      (gr_poly
        (pts
          (xy 0.191596 0.191596)
          (xy -0.108205 0.191596)
          (xy -0.191596 0.108205)
          (xy -0.191596 -0.191596)
          (xy 0.191596 -0.191596)
        )
        (width 0.201322) (fill yes))
    ) (tstamp 96653413-835f-4708-a34e-4d7c50acaf99))
  (pad "" smd custom (at 1.3625 -0.5) (size 0.502693 0.502693) (layers "F.Paste")
    (thermal_bridge_angle 45)
    (options (clearance outline) (anchor circle))
    (primitives
      (gr_poly
        (pts
          (xy 0.210436 0.321292)
          (xy -0.142653 0.321292)
          (xy -0.210436 0.253509)
          (xy -0.210436 -0.253509)
          (xy -0.142653 -0.321292)
          (xy 0.210436 -0.321292)
        )
        (width 0.163642) (fill yes))
    ) (tstamp 60c7e3e2-9b8b-4b35-a9f4-3dd0161f835c))
  (pad "" smd custom (at 1.3625 0.5) (size 0.502693 0.502693) (layers "F.Paste")
    (thermal_bridge_angle 45)
    (options (clearance outline) (anchor circle))
    (primitives
      (gr_poly
        (pts
          (xy 0.210436 0.321292)
          (xy -0.142653 0.321292)
          (xy -0.210436 0.253509)
          (xy -0.210436 -0.253509)
          (xy -0.142653 -0.321292)
          (xy 0.210436 -0.321292)
        )
        (width 0.163642) (fill yes))
    ) (tstamp 95d59792-a97c-45ed-b059-fcfcc6c514e7))
  (pad "" smd custom (at 1.3625 1.3625) (size 0.483853 0.483853) (layers "F.Paste")
    (thermal_bridge_angle 45)
    (options (clearance outline) (anchor circle))
    (primitives
      (gr_poly
        (pts
          (xy 0.191596 0.191596)
          (xy -0.191596 0.191596)
          (xy -0.191596 -0.108205)
          (xy -0.108205 -0.191596)
          (xy 0.191596 -0.191596)
        )
        (width 0.201322) (fill yes))
    ) (tstamp 55f6db5c-7d74-44e0-9464-df5f02c58e28))
  (pad "1" smd roundrect (at -2.4375 -1.75) (size 0.875 0.25) (layers "F.Cu" "F.Paste" "F.Mask") (roundrect_rratio 0.25) (tstamp e2064d3b-8122-48c9-b4df-47826ca4f2a8))
  (pad "2" smd roundrect (at -2.4375 -1.25) (size 0.875 0.25) (layers "F.Cu" "F.Paste" "F.Mask") (roundrect_rratio 0.25) (tstamp 676894e0-82e4-4b32-bdb4-05a052f55b51))
  (pad "3" smd roundrect (at -2.4375 -0.75) (size 0.875 0.25) (layers "F.Cu" "F.Paste" "F.Mask") (roundrect_rratio 0.25) (tstamp 21ec1b1e-aac3-471b-87de-fadeb93efe17))
  (pad "4" smd roundrect (at -2.4375 -0.25) (size 0.875 0.25) (layers "F.Cu" "F.Paste" "F.Mask") (roundrect_rratio 0.25) (tstamp de25e3b7-032f-479b-ab1f-b978d84ef625))
  (pad "5" smd roundrect (at -2.4375 0.25) (size 0.875 0.25) (layers "F.Cu" "F.Paste" "F.Mask") (roundrect_rratio 0.25) (tstamp f53b841c-1ce4-44c4-a33e-bc19f29784fb))
  (pad "6" smd roundrect (at -2.4375 0.75) (size 0.875 0.25) (layers "F.Cu" "F.Paste" "F.Mask") (roundrect_rratio 0.25) (tstamp 5672bdb3-4849-4617-8f70-4421d01ce911))
  (pad "7" smd roundrect (at -2.4375 1.25) (size 0.875 0.25) (layers "F.Cu" "F.Paste" "F.Mask") (roundrect_rratio 0.25) (tstamp 4fd70504-d3ad-4b7d-813c-957e27258e10))
  (pad "8" smd roundrect (at -2.4375 1.75) (size 0.875 0.25) (layers "F.Cu" "F.Paste" "F.Mask") (roundrect_rratio 0.25) (tstamp 4bcbe7ce-a61e-4968-ae3d-87d322ae68ea))
  (pad "9" smd roundrect (at -1.75 2.4375) (size 0.25 0.875) (layers "F.Cu" "F.Paste" "F.Mask") (roundrect_rratio 0.25) (tstamp 34a0799c-7d28-40b1-90da-c84a2f650cb3))
  (pad "10" smd roundrect (at -1.25 2.4375) (size 0.25 0.875) (layers "F.Cu" "F.Paste" "F.Mask") (roundrect_rratio 0.25) (tstamp 927d55c2-cc5c-41d8-b73f-ca521f58d0c7))
  (pad "11" smd roundrect (at -0.75 2.4375) (size 0.25 0.875) (layers "F.Cu" "F.Paste" "F.Mask") (roundrect_rratio 0.25) (tstamp 64e58bef-94ae-4b95-a163-3da7e065d075))
  (pad "12" smd roundrect (at -0.25 2.4375) (size 0.25 0.875) (layers "F.Cu" "F.Paste" "F.Mask") (roundrect_rratio 0.25) (tstamp 67374ad5-c481-45a7-9602-5175fe050043))
  (pad "13" smd roundrect (at 0.25 2.4375) (size 0.25 0.875) (layers "F.Cu" "F.Paste" "F.Mask") (roundrect_rratio 0.25) (tstamp 28ad4493-f6f7-432f-b1bf-26cf156bbfff))
  (pad "14" smd roundrect (at 0.75 2.4375) (size 0.25 0.875) (layers "F.Cu" "F.Paste" "F.Mask") (roundrect_rratio 0.25) (tstamp 90928853-a86f-40e2-b95b-dd11ad514c41))
  (pad "15" smd roundrect (at 1.25 2.4375) (size 0.25 0.875) (layers "F.Cu" "F.Paste" "F.Mask") (roundrect_rratio 0.25) (tstamp 7e7176a3-27df-442c-9b7a-9368729d0933))
  (pad "16" smd roundrect (at 1.75 2.4375) (size 0.25 0.875) (layers "F.Cu" "F.Paste" "F.Mask") (roundrect_rratio 0.25) (tstamp 27873944-a021-427f-935a-8a64809e0adb))
  (pad "17" smd roundrect (at 2.4375 1.75) (size 0.875 0.25) (layers "F.Cu" "F.Paste" "F.Mask") (roundrect_rratio 0.25) (tstamp 1292c3a2-6143-44f0-8445-8c94b50c43cb))
  (pad "18" smd roundrect (at 2.4375 1.25) (size 0.875 0.25) (layers "F.Cu" "F.Paste" "F.Mask") (roundrect_rratio 0.25) (tstamp a9c0eb80-a962-4372-8aed-aa6b740be058))
  (pad "19" smd roundrect (at 2.4375 0.75) (size 0.875 0.25) (layers "F.Cu" "F.Paste" "F.Mask") (roundrect_rratio 0.25) (tstamp ad73bc63-b8a0-4911-9afc-9e12c6d89de7))
  (pad "20" smd roundrect (at 2.4375 0.25) (size 0.875 0.25) (layers "F.Cu" "F.Paste" "F.Mask") (roundrect_rratio 0.25) (tstamp f9ffd866-ba38-41d1-a01b-5a614d1e17a6))
  (pad "21" smd roundrect (at 2.4375 -0.25) (size 0.875 0.25) (layers "F.Cu" "F.Paste" "F.Mask") (roundrect_rratio 0.25) (tstamp d9d245b4-6314-4aa8-acd0-468c1bf1e9eb))
  (pad "22" smd roundrect (at 2.4375 -0.75) (size 0.875 0.25) (layers "F.Cu" "F.Paste" "F.Mask") (roundrect_rratio 0.25) (tstamp 7bab4b90-c0d9-4887-8fb7-9ff8dd737c5f))
  (pad "23" smd roundrect (at 2.4375 -1.25) (size 0.875 0.25) (layers "F.Cu" "F.Paste" "F.Mask") (roundrect_rratio 0.25) (tstamp fe195418-b55e-4e30-a0a4-17dd17b9d3d1))
  (pad "24" smd roundrect (at 2.4375 -1.75) (size 0.875 0.25) (layers "F.Cu" "F.Paste" "F.Mask") (roundrect_rratio 0.25) (tstamp 5ca88871-bceb-4847-a6cc-7750c60aaa3c))
  (pad "25" smd roundrect (at 1.75 -2.4375) (size 0.25 0.875) (layers "F.Cu" "F.Paste" "F.Mask") (roundrect_rratio 0.25) (tstamp d4cc7760-6962-4f22-adf5-f4ca578f07b2))
  (pad "26" smd roundrect (at 1.25 -2.4375) (size 0.25 0.875) (layers "F.Cu" "F.Paste" "F.Mask") (roundrect_rratio 0.25) (tstamp 53986171-a87c-4179-9fde-bdd5bcd9cb02))
  (pad "27" smd roundrect (at 0.75 -2.4375) (size 0.25 0.875) (layers "F.Cu" "F.Paste" "F.Mask") (roundrect_rratio 0.25) (tstamp 72aaba26-a21a-4eb3-b265-5edf4d276c45))
  (pad "28" smd roundrect (at 0.25 -2.4375) (size 0.25 0.875) (layers "F.Cu" "F.Paste" "F.Mask") (roundrect_rratio 0.25) (tstamp 4857e807-95ba-404c-8665-f5b05739d736))
  (pad "29" smd roundrect (at -0.25 -2.4375) (size 0.25 0.875) (layers "F.Cu" "F.Paste" "F.Mask") (roundrect_rratio 0.25) (tstamp a1978d45-9e30-4575-adbf-d11b2a233569))
  (pad "30" smd roundrect (at -0.75 -2.4375) (size 0.25 0.875) (layers "F.Cu" "F.Paste" "F.Mask") (roundrect_rratio 0.25) (tstamp a1cfb698-245e-4c94-ac70-77c3e79b79a4))
  (pad "31" smd roundrect (at -1.25 -2.4375) (size 0.25 0.875) (layers "F.Cu" "F.Paste" "F.Mask") (roundrect_rratio 0.25) (tstamp 0e5b13ad-f657-49d8-b3b4-f6f3d71f8cef))
  (pad "32" smd roundrect (at -1.75 -2.4375) (size 0.25 0.875) (layers "F.Cu" "F.Paste" "F.Mask") (roundrect_rratio 0.25) (tstamp 0e0302f9-9c8b-4d4e-ade5-6c87d3e57dcf))
  (pad "33" thru_hole circle (at -1 -1) (size 0.5 0.5) (drill 0.3) (layers "*.Cu") (tstamp c6a3f1e7-01bd-439a-ba26-c81a731c7585))
  (pad "33" thru_hole circle (at -1 0) (size 0.5 0.5) (drill 0.3) (layers "*.Cu") (tstamp ab104b78-548a-4af2-b89c-4f6854d91131))
  (pad "33" thru_hole circle (at -1 1) (size 0.5 0.5) (drill 0.3) (layers "*.Cu") (tstamp 439270b7-5d67-45d5-bd95-ecfaf1480181))
  (pad "33" thru_hole circle (at 0 -1) (size 0.5 0.5) (drill 0.3) (layers "*.Cu") (tstamp 10a8af1d-07ea-40c7-a71c-c290198b9a84))
  (pad "33" thru_hole circle (at 0 0) (size 0.5 0.5) (drill 0.3) (layers "*.Cu") (tstamp 98bec7d7-2326-4cbc-aed2-6588fa29b04a))
  (pad "33" smd rect (at 0 0) (size 2.5 2.5) (layers "B.Cu") (tstamp f8d6e0d6-151a-44d6-abd3-2ee9f0e95e8d))
  (pad "33" smd rect (at 0 0) (size 3.45 3.45) (layers "F.Cu" "F.Mask") (tstamp 49e8dbaf-6d79-4010-acd8-ccdfe0939692))
  (pad "33" thru_hole circle (at 0 1) (size 0.5 0.5) (drill 0.3) (layers "*.Cu") (tstamp 6181c1b8-a8ac-4f4e-a070-d68a1edab5ba))
  (pad "33" thru_hole circle (at 1 -1) (size 0.5 0.5) (drill 0.3) (layers "*.Cu") (tstamp f9bd6b3e-d1c3-4a11-88ee-76a9cd9b4e9b))
  (pad "33" thru_hole circle (at 1 0) (size 0.5 0.5) (drill 0.3) (layers "*.Cu") (tstamp 1fdf2bfd-2641-495d-af91-0963e338db07))
  (pad "33" thru_hole circle (at 1 1) (size 0.5 0.5) (drill 0.3) (layers "*.Cu") (tstamp 9449f8ac-4943-4791-ae2d-5ca3833c6615))
  (model "${KICAD6_3DMODEL_DIR}/Package_DFN_QFN.3dshapes/QFN-32-1EP_5x5mm_P0.5mm_EP3.45x3.45mm.wrl"
    (offset (xyz 0 0 0))
    (scale (xyz 1 1 1))
    (rotate (xyz 0 0 0))
  )
)
