(module QFN-16_1.8x2.6_Pitch0.4mm (layer F.Cu) (tedit 0)
  (attr smd)
  (fp_text reference REF** (at 0 -2.95) (layer F.SilkS)
    (effects (font (size 1 1) (thickness 0.15)))
  )
  (fp_text value QFN-16_1.8x2.6_Pitch0.4mm (at 0 2.95) (layer F.Fab)
    (effects (font (size 1 1) (thickness 0.15)))
  )
  (fp_line (start 0 -1.3) (end -0.9 -0.4) (layer F.Fab) (width 0.15))
  (fp_line (start -0.9 -0.4) (end -0.9 1.3) (layer F.Fab) (width 0.15))
  (fp_line (start -0.9 1.3) (end 0.9 1.3) (layer F.Fab) (width 0.15))
  (fp_line (start 0.9 1.3) (end 0.9 -1.3) (layer F.Fab) (width 0.15))
  (fp_line (start 0.9 -1.3) (end 0 -1.3) (layer F.Fab) (width 0.15))
  (fp_line (start 1 -1.45) (end 1.05 -1.45) (layer F.SilkS) (width 0.12))
  (fp_line (start 1.05 -1.45) (end 1.05 -1) (layer F.SilkS) (width 0.12))
  (fp_line (start 1 1.45) (end 1.05 1.45) (layer F.SilkS) (width 0.12))
  (fp_line (start 1.05 1.45) (end 1.05 1) (layer F.SilkS) (width 0.12))
  (fp_line (start -1 1.45) (end -1.05 1.45) (layer F.SilkS) (width 0.12))
  (fp_line (start -1.05 1.45) (end -1.05 1) (layer F.SilkS) (width 0.12))
  (fp_line (start -1 -1.45) (end -1.275 -1.45) (layer F.SilkS) (width 0.12))
  (fp_line (start -1.55 -1.95) (end 1.55 -1.95) (layer F.CrtYd) (width 0.05))
  (fp_line (start 1.55 -1.95) (end 1.55 1.95) (layer F.CrtYd) (width 0.05))
  (fp_line (start 1.55 1.95) (end -1.55 1.95) (layer F.CrtYd) (width 0.05))
  (fp_line (start -1.55 1.95) (end -1.55 -1.95) (layer F.CrtYd) (width 0.05))
  (pad 1 smd oval (at -0.925 -0.6 90) (size 0.2 0.75) (layers F.Cu F.Paste F.Mask))
  (pad 2 smd oval (at -0.925 -0.2 90) (size 0.2 0.75) (layers F.Cu F.Paste F.Mask))
  (pad 3 smd oval (at -0.925 0.2 90) (size 0.2 0.75) (layers F.Cu F.Paste F.Mask))
  (pad 4 smd oval (at -0.925 0.6 90) (size 0.2 0.75) (layers F.Cu F.Paste F.Mask))
  (pad 5 smd oval (at -0.6 1.325) (size 0.2 0.75) (layers F.Cu F.Paste F.Mask))
  (pad 6 smd oval (at -0.2 1.325) (size 0.2 0.75) (layers F.Cu F.Paste F.Mask))
  (pad 7 smd oval (at 0.2 1.325) (size 0.2 0.75) (layers F.Cu F.Paste F.Mask))
  (pad 8 smd oval (at 0.6 1.325) (size 0.2 0.75) (layers F.Cu F.Paste F.Mask))
  (pad 9 smd oval (at 0.925 0.6 90) (size 0.2 0.75) (layers F.Cu F.Paste F.Mask))
  (pad 10 smd oval (at 0.925 0.2 90) (size 0.2 0.75) (layers F.Cu F.Paste F.Mask))
  (pad 11 smd oval (at 0.925 -0.2 90) (size 0.2 0.75) (layers F.Cu F.Paste F.Mask))
  (pad 12 smd oval (at 0.925 -0.6 90) (size 0.2 0.75) (layers F.Cu F.Paste F.Mask))
  (pad 13 smd oval (at 0.6 -1.325) (size 0.2 0.75) (layers F.Cu F.Paste F.Mask))
  (pad 14 smd oval (at 0.2 -1.325) (size 0.2 0.75) (layers F.Cu F.Paste F.Mask))
  (pad 15 smd oval (at -0.2 -1.325) (size 0.2 0.75) (layers F.Cu F.Paste F.Mask))
  (pad 16 smd oval (at -0.6 -1.325) (size 0.2 0.75) (layers F.Cu F.Paste F.Mask))
)
